[npc]
NULL
down
0
24
20
NULL
0
-1
0
false
false
false
[/npc]
[npc]
NULL
down
0
15
17
NULL
0
-1
1,2,3
false
false
false
[/npc]
[npc]
NULL
down
0
26
17
NULL
0
-1
4
false
false
false
[/npc]
[npc]
NULL
down
0
24
10
NULL
0
-1
5,6
false
false
false
[/npc]
[warp]
32
25
15
16
-49
-38
0
[/warp]
[warp]
21
29
4
14
-49
-40
0
[/warp]
[warp]
19
17
23
30
-49
-42
0
[/warp]
[warp]
30
17
4
22
-49
-39
0
[/warp]
[warp]
3
15
4
14
-49
-43
0
[/warp]
[warp]
23
8
8
16
-50
-44
0
[/warp]
[warp]
9
17
5
7
-50
-48
0
[/warp]
