[npc]
Lighthouse Visitor
down
340
16
7
NULL
0
-1
0,1
false
false
false
[/npc]
[npc]
Lighthouse Visitor
down
395
8
2
NULL
0
-1
2,3
false
false
false
[/npc]
[warp]
10
17
30
28
-6
-3
0
[/warp]
[warp]
11
17
30
28
-6
-3
0
[/warp]
[warp]
3
11
2
11
-38
-37
0
[/warp]
