[warp]
52
47
70
7
32
20
0
[/warp]
[warp]
61
20
60
70
-41
-38
0
[/warp]
[warp]
60
69
61
21
-41
-38
0
[/warp]
[warp]
34
71
39
121
-41
-38
0
[/warp]
[warp]
39
120
34
72
-41
-38
0
[/warp]
[warp]
43
69
48
119
-41
-38
0
[/warp]
[warp]
48
118
43
70
-41
-38
0
[/warp]
[warp]
49
69
54
119
-41
-38
0
[/warp]
[warp]
54
118
49
70
-41
-38
0
[/warp]
[warp]
62
72
59
80
-41
-38
0
[/warp]
[warp]
58
80
61
72
-41
-38
0
[/warp]
[warp]
58
72
35
83
-41
-38
0
[/warp]
[warp]
34
83
59
72
-41
-38
0
[/warp]
[warp]
51
72
62
87
-41
-38
0
[/warp]
[warp]
63
87
50
72
-41
-38
0
[/warp]
[warp]
34
88
75
71
-41
-38
0
[/warp]
[warp]
76
71
35
88
-41
-38
0
[/warp]
[warp]
54
78
74
85
-41
-38
0
[/warp]
[warp]
73
85
53
78
-41
-38
0
[/warp]
[warp]
73
73
78
77
-41
-38
0
[/warp]
[warp]
79
77
74
73
-41
-38
0
[/warp]
[warp]
76
77
75
81
-41
-38
0
[/warp]
[warp]
76
81
77
77
-41
-38
0
[/warp]
[warp]
73
81
78
85
-41
-38
0
[/warp]
[warp]
79
85
74
81
-41
-38
0
[/warp]
[warp]
76
73
76
72
-41
-38
0
[/warp]
[warp]
79
73
76
72
-41
-38
0
[/warp]
[warp]
76
85
76
72
-41
-38
0
[/warp]
[warp]
41
125
68
125
-41
-38
0
[/warp]
[warp]
67
125
41
124
-41
-38
0
[/warp]
[warp]
48
130
55
130
-41
-38
0
[/warp]
[warp]
54
130
47
130
-41
-38
0
[/warp]
[warp]
44
125
66
134
-41
-38
0
[/warp]
[warp]
67
134
45
125
-41
-38
0
[/warp]
[warp]
68
137
50
22
-41
-38
0
[/warp]
[npc]
Archie
down
6
61
135
Mightyena,80,Sharpedo,80,Crobat,80
3
-1
0
false
false
false
[/npc]