[npc]
Battlefrontier - battlefactory lady - lvl 50
down
363
15
7
NULL
0
-1
1
false
false
false
[/npc]
[npc]
Battlefrontier - battlefactory lady - any lvl
down
335
5
7
NULL
0
-1
1
false
false
false
[/npc]
[npc]
NULL
down
0
1
5
NULL
0
-1
2
false
true
false
[/npc]
[warp]
10
12
12
40
29
26
0
[/warp]
[warp]
11
12
12
40
29
26
0
[/warp]