[npc]
Channeler Angelica
right
259
12
10
Gastly,22,Gastly,22,Gastly,22
3
-1
0
false
false
false
[/npc]
[npc]
Channeler Jennifer
left
260
17
6
Gastly,24
1
-1
1
false
false
false
[/npc]
[npc]
Channeler Emilia
down
259
8
6
Gastly,24
1
-1
2
false
false
false
[/npc]
[warp]
18
10
17
10
-48
-19
0
[/warp]
[warp]
9
16
9
16
-48
-17
0
[/warp]