[npc]
Receptionist
down
328
31
8
NULL
0
-1
0
false
false
false
[/npc]
[npc]
NULL
down
0
31
9
NULL
0
-1
1,2
false
false
false
[/npc]
[npc]
Trainer
left
116
46
13
NULL
0
-1
3
false
false
false
[/npc]
[npc]
Security Guard Barney
down
327
20
8
NULL
0
-1
4
false
false
false
[/npc]
[npc]
Engineer
up
279
12
7
NULL
0
-1
5,6
false
false
false
[/npc]
[npc]
Engineer
up
343
9
7
NULL
0
-1
7,8,9
false
false
false
[/npc]
[npc]
Engineer
up
344
6
7
NULL
0
-1
10,11
false
false
false
[/npc]
[npc]
Engineer
up
344
3
7
NULL
0
-1
12
false
false
false
[/npc]
[npc]
Scientist
up
279
8
13
NULL
0
-1
13
false
false
false
[/npc]
[warp]
31
19
7
42
8
-4
0
[/warp]
[warp]
63
7
1
10
-45
-15
0
[/warp]
[warp]
63
8
1
11
-45
-15
0
[/warp]
[warp]
63
9
1
12
-45
-15
0
[/warp]