[warp]
47
47
27
32
-41
-28
0
[/warp]
[npc]
Nurse Joy
down
157
39
58
NULL
0
-1
1
true
false
false
[/npc]
[npc]
NULL
down
0
42
58
NULL
0
-1
2
false
true
false
[/npc]
[npc]
Tobias
down
257
13
13
Latios,100,Darkray,100,Milotic,100,Rotom,100,Aerodactyl,100,Metagross,100
6
-1
0
false
false
false
[/npc]


