[warp]
58
56
42
24
52
9
0
[/warp]
[warp]
51
52
34
27
52
9
0
[/warp]
[warp]
33
56
21
24
52
9
0
[/warp]
[warp]
48
47
32
25
52
11
0
[/warp]
[warp]
38
36
21
17
52
11
0
[/warp]
[warp]
34
41
19
20
52
11
0
[/warp]
[warp]
60
26
14
24
52
12
0
[/warp]

